# Blender v2.79 (sub 0) OBJ File: 'carGlass.blend'
# www.blender.org
mtllib SportCar20_RightWindow.mtl
o RightWindow_SportCar20_Windows_LOD0_1.003
v -0.626184 1.169227 -0.436965
v -0.627490 1.159159 -0.521507
v -0.666463 1.061831 -0.596468
v -0.678718 1.057341 -0.331978
v -0.687529 1.051551 -0.077853
v -0.626394 1.177629 -0.247940
v -0.625399 1.175671 -0.340536
v -0.678718 1.057341 -0.331978
v -0.638675 1.158450 -0.018452
v -0.632595 1.169329 -0.088905
v -0.628726 1.175376 -0.165485
v -0.687529 1.051551 -0.077853
v -0.663772 1.110680 0.146130
v -0.654367 1.129019 0.098413
v -0.646269 1.144395 0.046302
v -0.687529 1.051551 -0.077853
v -0.706347 0.967925 -0.577075
v -0.737176 0.891661 -0.560387
v -0.718082 0.962421 -0.317604
v -0.678718 1.057341 -0.331978
v -0.726681 0.955855 -0.068497
v -0.687529 1.051551 -0.077853
v -0.678718 1.057341 -0.331978
v -0.718082 0.962421 -0.317604
v -0.755859 0.877832 -0.060901
v -0.726681 0.955855 -0.068497
v -0.718082 0.962421 -0.317604
v -0.746644 0.884552 -0.305972
v -0.684470 1.068799 0.232680
v -0.674494 1.089180 0.194036
v -0.663772 1.110680 0.146130
v -0.710014 1.010179 0.250140
v -0.726681 0.955855 -0.068497
v -0.755859 0.877832 -0.060901
v -0.740155 0.936005 0.271986
v -0.710014 1.010179 0.250140
v -0.629929 1.142853 -0.614633
v -0.666463 1.061831 -0.596468
v -0.627490 1.159159 -0.521507
v -0.626184 1.169227 -0.436965
v -0.678718 1.057341 -0.331978
v -0.625399 1.175671 -0.340536
v -0.666463 1.061831 -0.596468
v -0.706347 0.967925 -0.577075
v -0.678718 1.057341 -0.331978
v -0.626394 1.177629 -0.247940
v -0.687529 1.051551 -0.077853
v -0.628726 1.175376 -0.165485
v -0.638675 1.158450 -0.018452
v -0.687529 1.051551 -0.077853
v -0.646269 1.144395 0.046302
v -0.737176 0.891661 -0.560387
v -0.746644 0.884552 -0.305972
v -0.718082 0.962421 -0.317604
v -0.687529 1.051551 -0.077853
v -0.710014 1.010179 0.250140
v -0.663772 1.110680 0.146130
v -0.687529 1.051551 -0.077853
v -0.726681 0.955855 -0.068497
v -0.710014 1.010179 0.250140
v -0.766718 0.868756 0.292168
v -0.740155 0.936005 0.271986
v -0.755859 0.877832 -0.060901
v -0.626184 1.169227 -0.436965
v -0.627490 1.159159 -0.521507
v -0.666463 1.061831 -0.596468
v -0.678718 1.057341 -0.331978
v -0.687529 1.051551 -0.077853
v -0.626394 1.177629 -0.247940
v -0.625399 1.175671 -0.340536
v -0.678718 1.057341 -0.331978
v -0.638675 1.158450 -0.018452
v -0.632595 1.169329 -0.088905
v -0.628726 1.175376 -0.165485
v -0.687529 1.051551 -0.077853
v -0.663772 1.110680 0.146130
v -0.654367 1.129019 0.098413
v -0.646269 1.144395 0.046302
v -0.687529 1.051551 -0.077853
v -0.706347 0.967925 -0.577075
v -0.737176 0.891661 -0.560387
v -0.718082 0.962421 -0.317604
v -0.678718 1.057341 -0.331978
v -0.726681 0.955855 -0.068497
v -0.687529 1.051551 -0.077853
v -0.678718 1.057341 -0.331978
v -0.718082 0.962421 -0.317604
v -0.755859 0.877832 -0.060901
v -0.726681 0.955855 -0.068497
v -0.718082 0.962421 -0.317604
v -0.746644 0.884552 -0.305972
v -0.684470 1.068799 0.232680
v -0.674494 1.089180 0.194036
v -0.663772 1.110680 0.146130
v -0.710014 1.010179 0.250140
v -0.726681 0.955855 -0.068497
v -0.755859 0.877832 -0.060901
v -0.740155 0.936005 0.271986
v -0.710014 1.010179 0.250140
vt 0.359406 0.605407
vt 0.304785 0.598369
vt 0.257174 0.529950
vt 0.428411 0.526410
vt 0.592873 0.522911
vt 0.481600 0.611981
vt 0.421722 0.610270
vt 0.428411 0.526410
vt 0.630211 0.599441
vt 0.584537 0.606846
vt 0.534950 0.610762
vt 0.592873 0.522911
vt 0.737144 0.566067
vt 0.706095 0.578955
vt 0.672234 0.589709
vt 0.592873 0.522911
vt 0.270575 0.464147
vt 0.282031 0.411124
vt 0.438556 0.460099
vt 0.428411 0.526410
vt 0.599770 0.456154
vt 0.592873 0.522911
vt 0.428411 0.526410
vt 0.438556 0.460099
vt 0.605313 0.402443
vt 0.599770 0.456154
vt 0.438556 0.460099
vt 0.446695 0.406676
vt 0.793541 0.536641
vt 0.768344 0.550966
vt 0.737144 0.566067
vt 0.805381 0.495441
vt 0.599770 0.456154
vt 0.605313 0.402443
vt 0.820156 0.443880
vt 0.805381 0.495441
vt 0.244640 0.587269
vt 0.257174 0.529950
vt 0.304785 0.598369
vt 0.359406 0.605407
vt 0.428411 0.526410
vt 0.421722 0.610270
vt 0.257174 0.529950
vt 0.270575 0.464147
vt 0.428411 0.526410
vt 0.481600 0.611981
vt 0.592873 0.522911
vt 0.534950 0.610762
vt 0.630211 0.599441
vt 0.592873 0.522911
vt 0.672234 0.589709
vt 0.282031 0.411124
vt 0.446695 0.406676
vt 0.438556 0.460099
vt 0.592873 0.522911
vt 0.805381 0.495441
vt 0.737144 0.566067
vt 0.592873 0.522911
vt 0.599770 0.456154
vt 0.805381 0.495441
vt 0.833778 0.397335
vt 0.820156 0.443880
vt 0.605313 0.402443
vt 0.359406 0.605407
vt 0.304785 0.598369
vt 0.257174 0.529950
vt 0.428411 0.526410
vt 0.592873 0.522911
vt 0.481600 0.611981
vt 0.421722 0.610270
vt 0.428411 0.526410
vt 0.630211 0.599441
vt 0.584537 0.606846
vt 0.534950 0.610762
vt 0.592873 0.522911
vt 0.737144 0.566067
vt 0.706095 0.578955
vt 0.672234 0.589709
vt 0.592873 0.522911
vt 0.270575 0.464147
vt 0.282031 0.411124
vt 0.438556 0.460099
vt 0.428411 0.526410
vt 0.599770 0.456154
vt 0.592873 0.522911
vt 0.428411 0.526410
vt 0.438556 0.460099
vt 0.605313 0.402443
vt 0.599770 0.456154
vt 0.438556 0.460099
vt 0.446695 0.406676
vt 0.793541 0.536641
vt 0.768344 0.550966
vt 0.737144 0.566067
vt 0.805381 0.495441
vt 0.599770 0.456154
vt 0.605313 0.402443
vt 0.820156 0.443880
vt 0.805381 0.495441
vn -0.9143 0.4042 -0.0267
vn -0.9160 0.3991 -0.0408
vn -0.9183 0.3938 -0.0395
vn -0.9193 0.3926 -0.0283
vn -0.9128 0.4081 -0.0162
vn -0.9092 0.4160 -0.0177
vn -0.9121 0.4096 -0.0192
vn -0.9065 0.4220 -0.0139
vn -0.9067 0.4217 -0.0128
vn -0.9069 0.4212 -0.0134
vn -0.9128 0.4081 -0.0161
vn -0.9127 0.4081 -0.0188
vn -0.9057 0.4236 -0.0157
vn -0.9060 0.4231 -0.0153
vn -0.9258 0.3767 -0.0331
vn -0.9335 0.3575 -0.0297
vn -0.9327 0.3597 -0.0273
vn -0.9320 0.3620 -0.0183
vn -0.9339 0.3569 -0.0203
vn -0.9391 0.3428 -0.0250
vn -0.9196 0.3916 -0.0308
vn -0.9195 0.3919 -0.0302
vn -0.9127 0.4082 -0.0188
vn -0.9229 0.3846 -0.0183
vn -0.9301 0.3667 -0.0202
vn -0.9145 0.4019 -0.0464
vn -0.9143 0.4043 -0.0267
vn -0.9121 0.4096 -0.0193
vn -0.9068 0.4213 -0.0133
vn -0.9060 0.4229 -0.0152
vn -0.9335 0.3574 -0.0297
vn -0.9391 0.3427 -0.0250
vn -0.9319 0.3623 -0.0193
usemtl WindowMetalness
s 1
f 1/1/1 2/2/2 3/3/3 4/4/4
s 2
f 5/5/5 6/6/6 7/7/7 8/8/4
s 3
f 9/9/8 10/10/9 11/11/10 12/12/11
s 4
f 13/13/12 14/14/13 15/15/14 16/16/5
s 5
f 17/17/15 18/18/16 19/19/17 20/20/4
s 6
f 21/21/18 22/22/11 23/23/4 24/24/17
s 7
f 25/25/19 26/26/18 27/27/17 28/28/20
s 8
f 29/29/21 30/30/22 31/31/23 32/32/24
s 9
f 33/33/18 34/34/19 35/35/25 36/36/24
s 10
f 37/37/26 38/38/3 39/39/2
s 11
f 40/40/27 41/41/4 42/42/28
s 12
f 43/43/3 44/44/15 45/45/4
s 13
f 46/46/6 47/47/5 48/48/29
s 14
f 49/49/8 50/50/5 51/51/30
s 15
f 52/52/31 53/53/32 54/54/17
s 16
f 55/55/11 56/56/24 57/57/12
s 17
f 58/58/5 59/59/18 60/60/24
s 18
f 61/61/33 62/62/25 63/63/19
s 19
f 64/64/1 65/65/2 66/66/3 67/67/4
s 20
f 68/68/5 69/69/6 70/70/7 71/71/4
s 21
f 72/72/8 73/73/9 74/74/10 75/75/11
s 22
f 76/76/12 77/77/13 78/78/14 79/79/5
s 23
f 80/80/15 81/81/16 82/82/17 83/83/4
s 24
f 84/84/18 85/85/11 86/86/4 87/87/17
s 25
f 88/88/19 89/89/18 90/90/17 91/91/20
s 26
f 92/92/21 93/93/22 94/94/23 95/95/24
s 27
f 96/96/18 97/97/19 98/98/25 99/99/24
