# Blender v2.79 (sub 0) OBJ File: ''
# www.blender.org
mtllib BackWindow.mtl
o BackWindow_default_0.001
v 0.487624 1.119993 -1.115665
v 0.488662 1.177195 -0.920917
v 0.557502 1.162791 -0.947059
v 0.577328 1.110206 -1.111359
v 0.383338 1.131892 -1.104217
v 0.391338 1.194813 -0.883796
v 0.163109 1.136867 -1.113838
v 0.164563 1.201880 -0.876111
v 0.152909 1.009513 -1.515130
v 0.142752 0.978733 -1.619037
v 0.162170 1.060258 -1.348667
v 0.348763 0.978303 -1.571826
v 0.362756 1.007857 -1.478061
v 0.377209 1.056942 -1.325322
v 0.478084 1.005029 -1.448790
v 0.468171 0.978827 -1.527508
v 0.487016 1.049579 -1.316411
v 0.600881 1.002565 -1.396189
v 0.603196 0.979069 -1.457061
v 0.593266 1.043453 -1.287957
v -0.487624 1.119993 -1.115665
v -0.577328 1.110206 -1.111359
v -0.557502 1.162791 -0.947059
v -0.488662 1.177195 -0.920917
v -0.383338 1.131892 -1.104217
v -0.391338 1.194813 -0.883796
v -0.164563 1.201880 -0.876111
v -0.163109 1.136867 -1.113838
v 0.000000 1.134281 -1.123592
v 0.000000 1.201014 -0.878855
v 0.000000 0.973042 -1.633489
v -0.142752 0.978733 -1.619037
v -0.152909 1.009513 -1.515130
v 0.000000 1.006067 -1.527817
v -0.162170 1.060258 -1.348667
v 0.000000 1.057451 -1.358268
v -0.348763 0.978303 -1.571826
v -0.362756 1.007857 -1.478061
v -0.377209 1.056942 -1.325322
v -0.468171 0.978827 -1.527508
v -0.478084 1.005029 -1.448790
v -0.487016 1.049579 -1.316411
v -0.603196 0.979069 -1.457061
v -0.600881 1.002565 -1.396189
v -0.593266 1.043453 -1.287957
v 0.487624 1.106915 -1.111464
v 0.488662 1.164117 -0.916716
v 0.557502 1.149713 -0.942858
v 0.577328 1.097128 -1.107158
v 0.383338 1.118814 -1.100016
v 0.391338 1.181735 -0.879595
v 0.163109 1.123789 -1.109637
v 0.164563 1.188802 -0.871910
v 0.152909 0.996435 -1.510929
v 0.142752 0.965655 -1.614836
v 0.162170 1.047180 -1.344466
v 0.348763 0.965225 -1.567625
v 0.362756 0.994779 -1.473860
v 0.377209 1.043864 -1.321121
v 0.478084 0.991951 -1.444589
v 0.468171 0.965749 -1.523307
v 0.487016 1.036501 -1.312210
v 0.600881 0.989487 -1.391988
v 0.603196 0.965991 -1.452860
v 0.593266 1.030375 -1.283756
v -0.487624 1.106915 -1.111464
v -0.577328 1.097128 -1.107158
v -0.557502 1.149713 -0.942858
v -0.488662 1.164117 -0.916716
v -0.383338 1.118814 -1.100016
v -0.391338 1.181735 -0.879595
v -0.164563 1.188802 -0.871910
v -0.163109 1.123789 -1.109637
v -0.000000 1.121203 -1.119391
v -0.000000 1.187936 -0.874654
v -0.000000 0.959964 -1.629288
v -0.142752 0.965655 -1.614836
v -0.152909 0.996435 -1.510929
v -0.000000 0.992989 -1.523616
v -0.162170 1.047180 -1.344466
v -0.000000 1.044373 -1.354067
v -0.348763 0.965225 -1.567625
v -0.362756 0.994779 -1.473860
v -0.377209 1.043864 -1.321121
v -0.468171 0.965749 -1.523307
v -0.478084 0.991951 -1.444589
v -0.487016 1.036501 -1.312210
v -0.603196 0.965991 -1.452860
v -0.600881 0.989487 -1.391988
v -0.593266 1.030375 -1.283756
vt 0.515133 0.430181
vt 0.593761 0.430590
vt 0.582369 0.457738
vt 0.515495 0.465557
vt 0.520818 0.389054
vt 0.609584 0.392209
vt 0.517906 0.302203
vt 0.613286 0.302777
vt 0.514002 0.237879
vt 0.612171 0.237879
vt 0.306708 0.237879
vt 0.349620 0.237879
vt 0.354707 0.298181
vt 0.312723 0.294175
vt 0.418270 0.237879
vt 0.422145 0.301833
vt 0.330003 0.375419
vt 0.368111 0.380937
vt 0.430303 0.386637
vt 0.378506 0.426418
vt 0.346340 0.422509
vt 0.432658 0.429941
vt 0.397512 0.474845
vt 0.372236 0.475758
vt 0.442342 0.471842
vt 0.515133 0.045578
vt 0.515496 0.010201
vt 0.582369 0.018020
vt 0.593761 0.045168
vt 0.520819 0.086704
vt 0.609584 0.083549
vt 0.613286 0.172981
vt 0.517906 0.173555
vt 0.312723 0.181583
vt 0.354707 0.177577
vt 0.422145 0.173925
vt 0.330004 0.100339
vt 0.368111 0.094821
vt 0.430304 0.089121
vt 0.346341 0.053249
vt 0.378506 0.049340
vt 0.432658 0.045817
vt 0.372236 0.000000
vt 0.397512 0.000913
vt 0.442343 0.003916
vt 0.208691 0.045577
vt 0.209261 0.010201
vt 0.276107 0.018020
vt 0.287383 0.045168
vt 0.214221 0.086704
vt 0.303094 0.083549
vt 0.306708 0.172981
vt 0.211160 0.173555
vt 0.207248 0.237879
vt 0.305593 0.237879
vt 0.000000 0.237879
vt 0.005993 0.181583
vt 0.048006 0.177577
vt 0.042909 0.237879
vt 0.115464 0.173925
vt 0.111586 0.237879
vt 0.023555 0.100339
vt 0.061656 0.094821
vt 0.123820 0.089121
vt 0.040139 0.053249
vt 0.072273 0.049340
vt 0.126363 0.045817
vt 0.066438 0.000000
vt 0.091630 0.000913
vt 0.136327 0.003916
vt 0.208691 0.430181
vt 0.287383 0.430590
vt 0.276107 0.457738
vt 0.209261 0.465557
vt 0.214221 0.389054
vt 0.303094 0.392209
vt 0.211160 0.302203
vt 0.306708 0.302777
vt 0.048006 0.298181
vt 0.005993 0.294175
vt 0.115464 0.301833
vt 0.023555 0.375419
vt 0.061656 0.380937
vt 0.123820 0.386637
vt 0.072273 0.426418
vt 0.040139 0.422509
vt 0.126363 0.429941
vt 0.091630 0.474845
vt 0.066438 0.475758
vt 0.136327 0.471842
vt 0.742371 0.770164
vt 0.747691 0.770369
vt 0.748229 0.796078
vt 0.742909 0.795874
vt 0.740557 0.650254
vt 0.745877 0.650458
vt 0.747021 0.724798
vt 0.741701 0.724594
vt 0.565462 0.721470
vt 0.570755 0.721582
vt 0.571038 0.775760
vt 0.565745 0.775648
vt 0.596671 0.695617
vt 0.601995 0.695617
vt 0.601973 0.760515
vt 0.596649 0.760515
vt 0.598437 0.541287
vt 0.603761 0.541287
vt 0.601973 0.630719
vt 0.596649 0.630719
vt 0.735237 0.582608
vt 0.740557 0.582404
vt 0.740019 0.608113
vt 0.734699 0.608317
vt 0.734029 0.653888
vt 0.739349 0.653684
vt 0.738206 0.728024
vt 0.732886 0.728228
vt 0.603423 0.475758
vt 0.608747 0.475758
vt 0.606251 0.502906
vt 0.600927 0.502906
vt 0.742909 0.582404
vt 0.748229 0.582608
vt 0.603761 0.849947
vt 0.598437 0.849947
vt 0.600927 0.888328
vt 0.606251 0.888328
vt 0.608747 0.915476
vt 0.603423 0.915476
vt 0.580252 0.532797
vt 0.585544 0.532909
vt 0.578690 0.582157
vt 0.573397 0.582046
vt 0.573397 0.852332
vt 0.578690 0.852444
vt 0.585544 0.895734
vt 0.580252 0.895623
vt 0.591357 0.475758
vt 0.596649 0.475870
vt 0.740557 0.795874
vt 0.735237 0.796078
vt 0.571038 0.665129
vt 0.565745 0.665017
vt 0.596649 0.943338
vt 0.591357 0.943226
vn 0.0981 0.9465 -0.3073
vn 0.0854 0.9558 -0.2813
vn 0.1060 0.9524 -0.2857
vn 0.1196 0.9427 -0.3113
vn 0.0554 0.9535 -0.2963
vn 0.0471 0.9607 -0.2735
vn 0.0180 0.9569 -0.2897
vn 0.0134 0.9638 -0.2664
vn 0.0014 0.9576 -0.2881
vn -0.0001 0.9647 -0.2634
vn -0.0028 0.9567 -0.2911
vn -0.0007 0.9567 -0.2910
vn 0.0305 0.9548 -0.2956
vn 0.0255 0.9553 -0.2944
vn 0.0021 0.9538 -0.3004
vn 0.0257 0.9520 -0.3049
vn 0.0813 0.9485 -0.3062
vn 0.0819 0.9473 -0.3098
vn 0.0688 0.9464 -0.3157
vn 0.1332 0.9354 -0.3276
vn 0.1293 0.9365 -0.3260
vn 0.1165 0.9376 -0.3275
vn 0.1591 0.9289 -0.3344
vn 0.1696 0.9255 -0.3387
vn 0.1409 0.9324 -0.3328
vn -0.0981 0.9465 -0.3073
vn -0.1196 0.9427 -0.3113
vn -0.1060 0.9524 -0.2857
vn -0.0854 0.9558 -0.2813
vn -0.0554 0.9535 -0.2963
vn -0.0471 0.9607 -0.2735
vn -0.0134 0.9638 -0.2664
vn -0.0180 0.9569 -0.2897
vn -0.0014 0.9576 -0.2881
vn 0.0001 0.9647 -0.2634
vn 0.0028 0.9567 -0.2911
vn -0.0255 0.9553 -0.2944
vn -0.0305 0.9548 -0.2956
vn 0.0007 0.9567 -0.2910
vn -0.0257 0.9520 -0.3049
vn -0.0021 0.9538 -0.3004
vn -0.0813 0.9485 -0.3062
vn -0.0819 0.9473 -0.3098
vn -0.0688 0.9464 -0.3157
vn -0.1293 0.9365 -0.3260
vn -0.1332 0.9354 -0.3276
vn -0.1165 0.9376 -0.3275
vn -0.1696 0.9255 -0.3387
vn -0.1591 0.9289 -0.3344
vn -0.1409 0.9324 -0.3328
vn -0.0981 -0.9465 0.3073
vn -0.1196 -0.9427 0.3113
vn -0.1060 -0.9524 0.2857
vn -0.0854 -0.9558 0.2813
vn -0.0554 -0.9535 0.2963
vn -0.0471 -0.9607 0.2735
vn -0.0134 -0.9638 0.2664
vn -0.0180 -0.9569 0.2897
vn -0.0014 -0.9576 0.2881
vn 0.0001 -0.9647 0.2634
vn 0.0028 -0.9567 0.2911
vn -0.0255 -0.9553 0.2944
vn -0.0305 -0.9548 0.2956
vn 0.0007 -0.9567 0.2910
vn -0.0257 -0.9520 0.3049
vn -0.0021 -0.9538 0.3004
vn -0.0813 -0.9485 0.3062
vn -0.0819 -0.9473 0.3098
vn -0.0688 -0.9464 0.3157
vn -0.1293 -0.9365 0.3260
vn -0.1332 -0.9354 0.3276
vn -0.1165 -0.9376 0.3275
vn -0.1696 -0.9255 0.3387
vn -0.1591 -0.9289 0.3344
vn -0.1409 -0.9324 0.3328
vn 0.0981 -0.9465 0.3073
vn 0.0854 -0.9558 0.2813
vn 0.1060 -0.9524 0.2857
vn 0.1196 -0.9427 0.3113
vn 0.0554 -0.9535 0.2963
vn 0.0471 -0.9607 0.2735
vn 0.0180 -0.9569 0.2897
vn 0.0134 -0.9638 0.2664
vn 0.0014 -0.9576 0.2881
vn -0.0001 -0.9647 0.2634
vn -0.0028 -0.9567 0.2911
vn -0.0007 -0.9567 0.2910
vn 0.0305 -0.9548 0.2956
vn 0.0255 -0.9553 0.2944
vn 0.0021 -0.9538 0.3004
vn 0.0257 -0.9520 0.3049
vn 0.0813 -0.9485 0.3062
vn 0.0819 -0.9473 0.3098
vn 0.0688 -0.9464 0.3157
vn 0.1332 -0.9354 0.3276
vn 0.1293 -0.9365 0.3260
vn 0.1165 -0.9376 0.3275
vn 0.1591 -0.9289 0.3344
vn 0.1696 -0.9255 0.3387
vn 0.1409 -0.9324 0.3328
vn 0.9987 0.0156 0.0487
vn 0.9987 0.0153 0.0477
vn 0.8684 -0.1516 -0.4720
vn 0.8510 -0.1606 -0.5000
vn 0.9950 0.0304 0.0947
vn 0.9951 0.0303 0.0942
vn 0.9972 0.0228 0.0711
vn 0.9972 0.0230 0.0717
vn -0.1079 -0.3040 -0.9465
vn -0.1615 -0.3018 -0.9396
vn -0.1594 -0.3019 -0.9399
vn -0.0175 0.3058 0.9519
vn 0.0123 0.3058 0.9520
vn 0.0120 0.3058 0.9520
vn -0.2133 0.2988 0.9302
vn -0.2212 0.2983 0.9285
vn -0.0123 0.3058 0.9520
vn -0.0120 0.3058 0.9520
vn -0.8510 -0.1606 -0.5000
vn -0.8684 -0.1516 -0.4720
vn -0.9987 0.0153 0.0477
vn -0.9987 0.0156 0.0487
vn -0.9972 0.0230 0.0717
vn -0.9972 0.0228 0.0711
vn -0.9951 0.0303 0.0942
vn -0.9950 0.0304 0.0947
vn -0.7930 0.1863 0.5800
vn -0.8097 0.1795 0.5587
vn -0.3889 0.2818 0.8771
vn -0.3887 0.2818 0.8772
vn 0.7930 0.1863 0.5800
vn 0.8097 0.1795 0.5587
vn 0.0175 0.3058 0.9519
vn 0.2212 0.2983 0.9285
vn 0.2133 0.2988 0.9302
vn 0.3887 0.2818 0.8772
vn 0.3889 0.2818 0.8771
vn 0.3861 -0.2821 -0.8782
vn 0.3947 -0.2810 -0.8748
vn 0.2773 -0.2938 -0.9147
vn 0.2706 -0.2944 -0.9166
vn -0.2706 -0.2944 -0.9166
vn -0.2773 -0.2938 -0.9147
vn -0.3947 -0.2810 -0.8748
vn -0.3861 -0.2821 -0.8782
vn 0.1615 -0.3018 -0.9396
vn 0.1594 -0.3019 -0.9399
vn 0.1079 -0.3040 -0.9465
usemtl WindowMetalness
s 1
f 1/1/1 2/2/2 3/3/3 4/4/4
f 5/5/5 6/6/6 2/2/2 1/1/1
f 5/5/5 7/7/7 8/8/8 6/6/6
f 29/9/9 30/10/10 8/8/8 7/7/7
f 31/11/11 34/12/12 9/13/13 10/14/14
f 34/12/12 36/15/15 11/16/16 9/13/13
f 36/15/15 29/9/9 7/7/7 11/16/16
f 12/17/17 10/14/14 9/13/13 13/18/18
f 13/18/18 9/13/13 11/16/16 14/19/19
f 14/19/19 11/16/16 7/7/7 5/5/5
f 12/17/17 13/18/18 15/20/20 16/21/21
f 13/18/18 14/19/19 17/22/22 15/20/20
f 14/19/19 5/5/5 1/1/1 17/22/22
f 16/21/21 15/20/20 18/23/23 19/24/24
f 15/20/20 17/22/22 20/25/25 18/23/23
f 17/22/22 1/1/1 4/4/4 20/25/25
f 21/26/26 22/27/27 23/28/28 24/29/29
f 25/30/30 21/26/26 24/29/29 26/31/31
f 25/30/30 26/31/31 27/32/32 28/33/33
f 29/9/34 28/33/33 27/32/32 30/10/35
f 31/11/36 32/34/37 33/35/38 34/12/39
f 34/12/39 33/35/38 35/36/40 36/15/41
f 36/15/41 35/36/40 28/33/33 29/9/34
f 37/37/42 38/38/43 33/35/38 32/34/37
f 38/38/43 39/39/44 35/36/40 33/35/38
f 39/39/44 25/30/30 28/33/33 35/36/40
f 37/37/42 40/40/45 41/41/46 38/38/43
f 38/38/43 41/41/46 42/42/47 39/39/44
f 39/39/44 42/42/47 21/26/26 25/30/30
f 40/40/45 43/43/48 44/44/49 41/41/46
f 41/41/46 44/44/49 45/45/50 42/42/47
f 42/42/47 45/45/50 22/27/27 21/26/26
f 46/46/51 49/47/52 48/48/53 47/49/54
f 50/50/55 46/46/51 47/49/54 51/51/56
f 50/50/55 51/51/56 53/52/57 52/53/58
f 74/54/59 52/53/58 53/52/57 75/55/60
f 76/56/61 55/57/62 54/58/63 79/59/64
f 79/59/64 54/58/63 56/60/65 81/61/66
f 81/61/66 56/60/65 52/53/58 74/54/59
f 57/62/67 58/63/68 54/58/63 55/57/62
f 58/63/68 59/64/69 56/60/65 54/58/63
f 59/64/69 50/50/55 52/53/58 56/60/65
f 57/62/67 61/65/70 60/66/71 58/63/68
f 58/63/68 60/66/71 62/67/72 59/64/69
f 59/64/69 62/67/72 46/46/51 50/50/55
f 61/65/70 64/68/73 63/69/74 60/66/71
f 60/66/71 63/69/74 65/70/75 62/67/72
f 62/67/72 65/70/75 49/47/52 46/46/51
f 66/71/76 69/72/77 68/73/78 67/74/79
f 70/75/80 71/76/81 69/72/77 66/71/76
f 70/75/80 73/77/82 72/78/83 71/76/81
f 74/54/84 75/55/85 72/78/83 73/77/82
f 76/56/86 79/59/87 78/79/88 77/80/89
f 79/59/87 81/61/90 80/81/91 78/79/88
f 81/61/90 74/54/84 73/77/82 80/81/91
f 82/82/92 77/80/89 78/79/88 83/83/93
f 83/83/93 78/79/88 80/81/91 84/84/94
f 84/84/94 80/81/91 73/77/82 70/75/80
f 82/82/92 83/83/93 86/85/95 85/86/96
f 83/83/93 84/84/94 87/87/97 86/85/95
f 84/84/94 70/75/80 66/71/76 87/87/97
f 85/86/96 86/85/95 89/88/98 88/89/99
f 86/85/95 87/87/97 90/90/100 89/88/98
f 87/87/97 66/71/76 67/74/79 90/90/100
f 18/91/101 63/92/102 64/93/103 19/94/104
f 4/95/105 49/96/106 65/97/107 20/98/108
f 31/99/109 76/100/109 77/101/110 32/102/111
f 30/103/112 75/104/112 53/105/113 8/106/114
f 26/107/115 71/108/116 72/109/117 27/110/118
f 43/111/119 88/112/120 89/113/121 44/114/122
f 45/115/123 90/116/124 67/117/125 22/118/126
f 23/119/127 68/120/128 69/121/129 24/122/130
f 3/123/131 48/124/132 49/96/106 4/95/105
f 27/110/118 72/109/117 75/104/133 30/103/133
f 8/106/114 53/105/113 51/125/134 6/126/135
f 44/114/122 89/113/121 90/116/124 45/115/123
f 2/127/136 47/128/137 48/129/132 3/130/131
f 24/122/130 69/121/129 71/108/116 26/107/115
f 16/131/138 61/132/139 57/133/140 12/134/141
f 37/135/142 82/136/143 85/137/144 40/138/145
f 6/126/135 51/125/134 47/128/137 2/127/136
f 19/139/104 64/140/103 61/132/139 16/131/138
f 22/118/126 67/117/125 68/141/128 23/142/127
f 12/134/141 57/133/140 55/143/146 10/144/147
f 32/102/111 77/101/110 82/136/143 37/135/142
f 40/138/145 85/137/144 88/145/120 43/146/119
f 10/144/147 55/143/146 76/100/148 31/99/148
f 20/98/108 65/97/107 63/92/102 18/91/101
