# Blender v2.79 (sub 0) OBJ File: ''
# www.blender.org
mtllib BackSideWindow.mtl
o BackSideWindow_default_0.003
v 0.614309 1.154279 -0.642652
v 0.720081 0.907708 -0.589678
v 0.718640 0.909100 -0.623184
v 0.615297 1.148833 -0.668545
v 0.705510 0.927914 -0.779331
v 0.696360 0.944848 -0.852293
v 0.623639 1.111291 -0.810183
v 0.620713 1.122777 -0.772776
v 0.626566 1.099804 -0.847590
v 0.686231 0.964533 -0.911606
v 0.616286 1.143386 -0.694438
v 0.711963 0.917289 -0.713116
v 0.675860 0.984569 -0.957734
v 0.667068 1.000526 -0.985243
v 0.642609 1.053278 -0.963427
v 0.633614 1.077116 -0.912322
v 0.650564 1.033965 -0.995908
v 0.660223 1.013722 -1.000037
v 0.655657 1.022729 -1.006323
v -0.646793 1.154279 -0.642652
v -0.647781 1.148833 -0.668545
v -0.751124 0.909100 -0.623184
v -0.752565 0.907708 -0.589678
v -0.737994 0.927914 -0.779331
v -0.653197 1.122777 -0.772776
v -0.656123 1.111291 -0.810183
v -0.728844 0.944848 -0.852293
v -0.659050 1.099804 -0.847590
v -0.718715 0.964533 -0.911606
v -0.744447 0.917289 -0.713116
v -0.648770 1.143386 -0.694438
v -0.708344 0.984569 -0.957734
v -0.666098 1.077116 -0.912322
v -0.675093 1.053278 -0.963427
v -0.699552 1.000526 -0.985243
v -0.683048 1.033965 -0.995908
v -0.692707 1.013722 -1.000037
v -0.688141 1.022729 -1.006323
v -0.639123 1.150800 -0.642355
v -0.640111 1.145355 -0.668248
v -0.743454 0.905622 -0.622887
v -0.744895 0.904230 -0.589381
v -0.730324 0.924436 -0.779034
v -0.645527 1.119298 -0.772479
v -0.648453 1.107812 -0.809886
v -0.721174 0.941370 -0.851996
v -0.651380 1.096325 -0.847293
v -0.711045 0.961055 -0.911309
v -0.736777 0.913811 -0.712819
v -0.641100 1.139908 -0.694141
v -0.700674 0.981091 -0.957437
v -0.658428 1.073637 -0.912025
v -0.667423 1.049799 -0.963130
v -0.691882 0.997048 -0.984946
v -0.675378 1.030487 -0.995611
v -0.685037 1.010244 -0.999740
v -0.680471 1.019251 -1.006026
v 0.608266 1.151538 -0.642418
v 0.714038 0.904967 -0.589444
v 0.712597 0.906359 -0.622950
v 0.609254 1.146092 -0.668311
v 0.699467 0.925173 -0.779097
v 0.690317 0.942107 -0.852059
v 0.617596 1.108550 -0.809949
v 0.614670 1.120036 -0.772542
v 0.620523 1.097063 -0.847356
v 0.680188 0.961792 -0.911372
v 0.610243 1.140645 -0.694204
v 0.705920 0.914548 -0.712882
v 0.669817 0.981828 -0.957500
v 0.661025 0.997785 -0.985009
v 0.636566 1.050537 -0.963193
v 0.627571 1.074375 -0.912088
v 0.644521 1.031224 -0.995674
v 0.654180 1.010981 -0.999803
v 0.649614 1.019988 -1.006089
vt 0.371772 0.626697
vt 0.273003 0.626697
vt 0.276366 0.613912
vt 0.371884 0.616272
vt 0.296766 0.555340
vt 0.309408 0.528648
vt 0.369533 0.558604
vt 0.370755 0.573964
vt 0.368310 0.543244
vt 0.321950 0.507438
vt 0.371995 0.605847
vt 0.287105 0.579957
vt 0.333517 0.491330
vt 0.341957 0.482049
vt 0.360312 0.494792
vt 0.365112 0.516438
vt 0.355665 0.480693
vt 0.348262 0.477438
vt 0.352243 0.475758
vt 0.174233 0.626697
vt 0.174122 0.616272
vt 0.269639 0.613912
vt 0.273003 0.626697
vt 0.249239 0.555340
vt 0.175250 0.573964
vt 0.176472 0.558604
vt 0.236597 0.528648
vt 0.177695 0.543244
vt 0.224055 0.507438
vt 0.258900 0.579957
vt 0.174011 0.605847
vt 0.212488 0.491330
vt 0.180893 0.516438
vt 0.185693 0.494792
vt 0.204049 0.482049
vt 0.190340 0.480693
vt 0.197744 0.477438
vt 0.193762 0.475758
vt 0.468728 0.626990
vt 0.371995 0.626990
vt 0.375128 0.614173
vt 0.468694 0.616549
vt 0.394347 0.555476
vt 0.406390 0.528720
vt 0.465590 0.558800
vt 0.466999 0.574183
vt 0.464180 0.543418
vt 0.418401 0.507463
vt 0.468659 0.606109
vt 0.385200 0.580149
vt 0.429513 0.491326
vt 0.437636 0.482042
vt 0.455723 0.494857
vt 0.460693 0.516559
vt 0.451006 0.480714
vt 0.443736 0.477433
vt 0.447603 0.475758
vt 0.346803 0.643100
vt 0.349717 0.642442
vt 0.348461 0.663171
vt 0.345547 0.663829
vt 0.755328 0.735762
vt 0.752336 0.735756
vt 0.751634 0.725413
vt 0.754625 0.725419
vt 0.348290 0.689275
vt 0.345376 0.689933
vt 0.750932 0.715070
vt 0.753924 0.715076
vt 0.347732 0.747326
vt 0.350646 0.746668
vt 0.351718 0.759195
vt 0.348804 0.759852
vt 0.751814 0.667744
vt 0.748823 0.667738
vt 0.748339 0.652277
vt 0.751330 0.652283
vt 0.753919 0.587906
vt 0.750928 0.587900
vt 0.752336 0.582404
vt 0.755327 0.582410
vt 0.613280 0.700602
vt 0.610025 0.700673
vt 0.610025 0.593077
vt 0.613280 0.593006
vt 0.749308 0.683198
vt 0.752299 0.683204
vt 0.373774 0.626990
vt 0.376845 0.627505
vt 0.376380 0.632034
vt 0.373308 0.631519
vt 0.748229 0.625086
vt 0.751220 0.625092
vt 0.345998 0.714034
vt 0.348912 0.713376
vt 0.373151 0.638946
vt 0.376222 0.639461
vt 0.376845 0.649831
vt 0.373774 0.649315
vt 0.749385 0.602728
vt 0.752377 0.602734
vt 0.348804 0.627355
vt 0.351718 0.626697
vt 0.468728 0.626990
vt 0.468763 0.616549
vt 0.562329 0.614173
vt 0.565462 0.626990
vt 0.543110 0.555476
vt 0.470458 0.574183
vt 0.471867 0.558800
vt 0.531067 0.528720
vt 0.473276 0.543418
vt 0.519056 0.507462
vt 0.552256 0.580149
vt 0.468798 0.606109
vt 0.507944 0.491326
vt 0.476764 0.516559
vt 0.481733 0.494857
vt 0.499821 0.482042
vt 0.486451 0.480714
vt 0.493721 0.477433
vt 0.489854 0.475758
vt 0.366016 0.661820
vt 0.368588 0.661883
vt 0.368577 0.666551
vt 0.366005 0.666488
vt 0.608956 0.521619
vt 0.611260 0.522097
vt 0.611051 0.546205
vt 0.608747 0.545728
vt 0.758279 0.650422
vt 0.755922 0.650427
vt 0.756407 0.634966
vt 0.758764 0.634961
vt 0.366016 0.626697
vt 0.368588 0.626760
vt 0.368452 0.642797
vt 0.365880 0.642734
vt 0.610119 0.488302
vt 0.612424 0.488779
vt 0.757795 0.665882
vt 0.755438 0.665887
vt 0.757684 0.693074
vt 0.755328 0.693079
vt 0.758841 0.715431
vt 0.756484 0.715436
vt 0.610976 0.475758
vt 0.613280 0.476236
vt 0.368582 0.654042
vt 0.366010 0.653979
vt 0.760384 0.730259
vt 0.758027 0.730264
vt 0.761090 0.592746
vt 0.758733 0.592751
vt 0.759435 0.582408
vt 0.761792 0.582404
vt 0.611670 0.572303
vt 0.609365 0.571825
vt 0.613280 0.593006
vt 0.610976 0.592528
vt 0.760388 0.603089
vt 0.758031 0.603094
vt 0.761792 0.735756
vt 0.759435 0.735761
vt 0.351718 0.626697
vt 0.354282 0.626753
vt 0.354282 0.734349
vt 0.351718 0.734293
vn 0.9206 0.3891 -0.0336
vn 0.9202 0.3898 -0.0346
vn 0.9202 0.3900 -0.0347
vn 0.9163 0.3989 -0.0365
vn 0.9129 0.4069 -0.0323
vn 0.9134 0.4058 -0.0321
vn 0.9164 0.3987 -0.0368
vn 0.9095 0.4143 -0.0341
vn 0.9082 0.4171 -0.0351
vn 0.9188 0.3928 -0.0376
vn 0.9187 0.3932 -0.0380
vn 0.9032 0.4274 -0.0390
vn 0.9007 0.4328 -0.0387
vn 0.9007 0.4327 -0.0397
vn 0.9043 0.4251 -0.0381
vn 0.9004 0.4337 -0.0340
vn 0.9004 0.4339 -0.0336
vn 0.8998 0.4354 -0.0297
vn -0.9206 0.3891 -0.0336
vn -0.9202 0.3900 -0.0347
vn -0.9202 0.3898 -0.0346
vn -0.9162 0.3989 -0.0365
vn -0.9164 0.3987 -0.0368
vn -0.9134 0.4058 -0.0321
vn -0.9129 0.4069 -0.0323
vn -0.9095 0.4143 -0.0341
vn -0.9082 0.4171 -0.0351
vn -0.9187 0.3932 -0.0380
vn -0.9188 0.3928 -0.0376
vn -0.9032 0.4274 -0.0390
vn -0.9043 0.4251 -0.0381
vn -0.9007 0.4327 -0.0397
vn -0.9007 0.4328 -0.0387
vn -0.9004 0.4337 -0.0340
vn -0.9004 0.4339 -0.0336
vn -0.8998 0.4354 -0.0297
vn 0.9206 -0.3891 0.0336
vn 0.9202 -0.3898 0.0345
vn 0.9202 -0.3900 0.0347
vn 0.9162 -0.3989 0.0365
vn 0.9129 -0.4069 0.0323
vn 0.9134 -0.4058 0.0321
vn 0.9164 -0.3987 0.0368
vn 0.9095 -0.4143 0.0341
vn 0.9082 -0.4171 0.0351
vn 0.9188 -0.3928 0.0376
vn 0.9187 -0.3932 0.0380
vn 0.9032 -0.4274 0.0390
vn 0.9007 -0.4328 0.0387
vn 0.9007 -0.4327 0.0397
vn 0.9043 -0.4251 0.0381
vn 0.9004 -0.4337 0.0340
vn 0.9004 -0.4339 0.0336
vn 0.8998 -0.4354 0.0297
vn -0.3668 -0.8425 -0.3946
vn -0.3669 -0.8427 -0.3939
vn -0.3841 -0.8727 -0.3016
vn -0.3839 -0.8724 -0.3026
vn 0.3272 0.7684 0.5500
vn 0.3254 0.7651 0.5557
vn 0.4110 0.8888 -0.2027
vn -0.3960 -0.8919 -0.2185
vn -0.3959 -0.8917 -0.2192
vn 0.4094 0.8832 -0.2286
vn 0.4095 0.8834 -0.2280
vn -0.4088 -0.9087 -0.0843
vn -0.4089 -0.9087 -0.0840
vn -0.2970 -0.5908 0.7502
vn -0.2937 -0.5830 0.7575
vn 0.4039 0.8652 -0.2973
vn 0.4016 0.8582 -0.3198
vn 0.4016 0.8583 -0.3194
vn 0.3312 0.6738 -0.6606
vn 0.3320 0.6757 -0.6582
vn 0.0654 0.0590 -0.9961
vn 0.0576 0.0418 -0.9975
vn 0.4058 0.8713 -0.2759
vn 0.4059 0.8715 -0.2753
vn -0.2313 -0.5770 -0.7833
vn -0.2321 -0.5786 -0.7819
vn 0.3922 0.8312 -0.3941
vn 0.3923 0.8313 -0.3938
vn -0.4037 -0.9028 -0.1482
vn -0.4037 -0.9029 -0.1478
vn -0.2999 -0.7151 -0.6314
vn -0.2994 -0.7142 -0.6327
vn -0.3428 -0.7981 -0.4955
vn -0.3428 -0.7982 -0.4953
vn 0.3751 0.7849 -0.4931
vn 0.3750 0.7847 -0.4935
vn -0.9206 -0.3891 0.0336
vn -0.9202 -0.3900 0.0347
vn -0.9202 -0.3898 0.0346
vn -0.9163 -0.3989 0.0365
vn -0.9164 -0.3987 0.0368
vn -0.9134 -0.4058 0.0321
vn -0.9129 -0.4069 0.0323
vn -0.9095 -0.4143 0.0341
vn -0.9082 -0.4171 0.0351
vn -0.9187 -0.3932 0.0380
vn -0.9188 -0.3928 0.0376
vn -0.9032 -0.4274 0.0390
vn -0.9043 -0.4251 0.0381
vn -0.9007 -0.4327 0.0397
vn -0.9007 -0.4328 0.0387
vn -0.9004 -0.4337 0.0340
vn -0.9004 -0.4339 0.0336
vn -0.8998 -0.4354 0.0297
vn 0.2321 -0.5786 -0.7819
vn 0.2313 -0.5770 -0.7833
vn -0.0654 0.0590 -0.9961
vn -0.0576 0.0418 -0.9975
vn 0.4037 -0.9028 -0.1482
vn 0.4037 -0.9029 -0.1478
vn 0.3960 -0.8919 -0.2185
vn 0.3959 -0.8917 -0.2192
vn -0.4039 0.8652 -0.2973
vn -0.4058 0.8713 -0.2759
vn -0.4059 0.8715 -0.2753
vn 0.3668 -0.8425 -0.3946
vn 0.3669 -0.8427 -0.3939
vn 0.3428 -0.7981 -0.4955
vn 0.3428 -0.7982 -0.4953
vn 0.4088 -0.9087 -0.0843
vn 0.4089 -0.9087 -0.0840
vn -0.4016 0.8583 -0.3194
vn -0.4016 0.8582 -0.3198
vn -0.3922 0.8313 -0.3938
vn -0.3922 0.8312 -0.3941
vn -0.3750 0.7847 -0.4935
vn -0.3751 0.7849 -0.4931
vn 0.2937 -0.5830 0.7575
vn 0.2970 -0.5908 0.7502
vn 0.2994 -0.7142 -0.6327
vn 0.2998 -0.7151 -0.6314
vn -0.3312 0.6738 -0.6606
vn -0.3319 0.6757 -0.6582
vn -0.4110 0.8888 -0.2027
vn -0.3254 0.7651 0.5557
vn -0.3272 0.7684 0.5500
vn 0.3841 -0.8727 -0.3016
vn 0.3839 -0.8724 -0.3026
vn -0.4095 0.8834 -0.2280
vn -0.4094 0.8832 -0.2286
usemtl WindowMetalness
s 1
f 1/1/1 2/2/1 3/3/2 4/4/3
f 5/5/4 6/6/5 7/7/6 8/8/7
f 9/9/8 7/7/6 6/6/5 10/10/9
f 8/8/7 11/11/10 12/12/11 5/5/4
f 13/13/12 14/14/13 15/15/14 16/16/15
f 17/17/16 15/15/14 14/14/13 18/18/17
f 10/10/9 13/13/12 16/16/15 9/9/8
f 18/18/17 19/19/18 17/17/16
f 4/4/3 3/3/2 12/12/11 11/11/10
f 20/20/19 21/21/20 22/22/21 23/23/19
f 24/24/22 25/25/23 26/26/24 27/27/25
f 28/28/26 29/29/27 27/27/25 26/26/24
f 25/25/23 24/24/22 30/30/28 31/31/29
f 32/32/30 33/33/31 34/34/32 35/35/33
f 36/36/34 37/37/35 35/35/33 34/34/32
f 29/29/27 28/28/26 33/33/31 32/32/30
f 37/37/35 36/36/34 38/38/36
f 21/21/20 31/31/29 30/30/28 22/22/21
f 39/39/37 42/40/37 41/41/38 40/42/39
f 43/43/40 46/44/41 45/45/42 44/46/43
f 47/47/44 45/45/42 46/44/41 48/48/45
f 44/46/43 50/49/46 49/50/47 43/43/40
f 51/51/48 54/52/49 53/53/50 52/54/51
f 55/55/52 53/53/50 54/52/49 56/56/53
f 48/48/45 51/51/48 52/54/51 47/47/44
f 56/56/53 57/57/54 55/55/52
f 40/42/39 41/41/38 49/50/47 50/49/46
f 29/58/55 48/59/56 46/60/57 27/61/58
f 20/62/59 39/63/60 40/64/61 21/65/61
f 27/61/58 46/60/57 43/66/62 24/67/63
f 21/65/61 40/64/61 50/68/64 31/69/65
f 22/70/66 41/71/67 42/72/68 23/73/69
f 26/74/70 45/75/70 47/76/71 28/77/72
f 36/78/73 55/79/74 57/80/75 38/81/76
f 23/82/69 42/83/68 39/84/60 20/85/59
f 31/69/65 50/68/64 44/86/77 25/87/78
f 25/87/78 44/86/77 45/75/70 26/74/70
f 38/88/76 57/89/75 56/90/79 37/91/80
f 28/77/72 47/76/71 52/92/81 33/93/82
f 30/94/83 49/95/84 41/71/67 22/70/66
f 35/96/85 54/97/86 51/98/87 32/99/88
f 24/67/63 43/66/62 49/95/84 30/94/83
f 33/93/82 52/92/81 53/100/89 34/101/90
f 37/91/80 56/90/79 54/97/86 35/96/85
f 32/102/88 51/103/87 48/59/56 29/58/55
f 34/101/90 53/100/89 55/79/74 36/78/73
f 58/104/91 61/105/92 60/106/93 59/107/91
f 62/108/94 65/109/95 64/110/96 63/111/97
f 66/112/98 67/113/99 63/111/97 64/110/96
f 65/109/95 62/108/94 69/114/100 68/115/101
f 70/116/102 73/117/103 72/118/104 71/119/105
f 74/120/106 75/121/107 71/119/105 72/118/104
f 67/113/99 66/112/98 73/117/103 70/116/102
f 75/121/107 74/120/106 76/122/108
f 61/105/92 68/115/101 69/114/100 60/106/93
f 18/123/109 75/124/110 76/125/111 19/126/112
f 12/127/113 69/128/114 62/129/115 5/130/116
f 7/131/117 64/132/117 65/133/118 8/134/119
f 10/135/120 67/136/121 70/137/122 13/138/123
f 3/139/124 60/140/125 69/128/114 12/127/113
f 9/141/126 66/142/127 64/132/117 7/131/117
f 16/143/128 73/144/129 66/142/127 9/141/126
f 15/145/130 72/146/131 73/144/129 16/143/128
f 2/147/132 59/148/133 60/140/125 3/139/124
f 13/138/123 70/137/122 71/149/134 14/150/135
f 14/150/135 71/149/134 75/124/110 18/123/109
f 17/151/136 74/152/137 72/146/131 15/145/130
f 4/153/138 61/154/138 58/155/139 1/156/140
f 5/130/116 62/129/115 63/157/141 6/158/142
f 6/158/142 63/157/141 67/159/121 10/160/120
f 11/161/143 68/162/144 61/154/138 4/153/138
f 19/163/112 76/164/111 74/152/137 17/151/136
f 8/134/119 65/133/118 68/162/144 11/161/143
f 1/165/140 58/166/139 59/167/133 2/168/132
